chapter12/test_top.vcd
$date
	Sun Feb  5 00:04:13 2023
$end
$version
	Icarus Verilog
$end
$timescale
	1ps
$end
$scope module test_top $end
$var wire 4 ! pin_led [3:0] $end
$var reg 1 " pin_clock $end
$var reg 1 # pin_n_reset $end
$var reg 4 $ pin_switch [3:0] $end
$scope module top $end
$var wire 1 " pin_clock $end
$var wire 1 # pin_n_reset $end
$var wire 4 % pin_switch [3:0] $end
$var wire 4 & pin_led [3:0] $end
$var wire 1 ' clk $end
$scope module mother_board $end
$var wire 1 # n_reset $end
$var wire 4 ( switch [3:0] $end
$var wire 4 ) led [3:0] $end
$var wire 8 * data [7:0] $end
$var wire 1 ' clk $end
$var wire 4 + addr [3:0] $end
$scope module cpu $end
$var wire 4 , addr [3:0] $end
$var wire 4 - led [3:0] $end
$var wire 1 # n_reset $end
$var wire 4 . switch [3:0] $end
$var wire 4 / opecode [3:0] $end
$var wire 4 0 imm [3:0] $end
$var wire 8 1 data [7:0] $end
$var wire 1 ' clk $end
$var reg 4 2 a [3:0] $end
$var reg 4 3 b [3:0] $end
$var reg 1 4 cf $end
$var reg 4 5 ip [3:0] $end
$var reg 4 6 next_a [3:0] $end
$var reg 4 7 next_b [3:0] $end
$var reg 1 8 next_cf $end
$var reg 4 9 next_ip [3:0] $end
$var reg 4 : next_out [3:0] $end
$var reg 4 ; out [3:0] $end
$upscope $end
$scope module rom $end
$var wire 4 < addr [3:0] $end
$var reg 8 = data [7:0] $end
$upscope $end
$upscope $end
$scope module prescaler $end
$var wire 1 " quick_clock $end
$var wire 1 > next_slow_clock $end
$var wire 32 ? next_counter [31:0] $end
$var wire 1 @ inv $end
$var reg 32 A counter [31:0] $end
$var reg 1 ' slow_clock $end
$upscope $end
$upscope $end
$upscope $end
$enddefinitions $end
#0
$dumpvars
b0 A
1@
b0 ?
1>
b0 =
bx <
bx ;
bx :
bx 9
x8
bx 7
bx 6
bx 5
x4
bx 3
bx 2
b0 1
b0 0
b0 /
b110 .
bx -
bx ,
bx +
b0 *
bx )
b110 (
0'
bx &
b110 %
b110 $
0#
0"
bx !
$end
#5000
b110 /
b1100000 *
b1100000 1
b1100000 =
b0 :
b1 9
08
b110 7
b0 6
b0 !
b0 &
b0 )
b0 -
b0 ;
b0 +
b0 ,
b0 <
b0 5
04
b0 3
b0 2
0>
1'
1"
#10000
0"
1#
#15000
1>
0'
1"
#20000
0"
#25000
b110 :
b1001 /
b10010000 *
b10010000 1
b10010000 =
b10 9
b1 +
b1 ,
b1 <
b1 5
b110 3
0>
1'
1"
#30000
0"
#35000
1>
0'
1"
#40000
0"
#45000
b1101 6
b1101 0
b11 /
b11 9
b111101 *
b111101 1
b111101 =
b110 !
b110 &
b110 )
b110 -
b110 ;
b10 +
b10 ,
b10 <
b10 5
0>
1'
1"
#50000
0"
#55000
1>
0'
1"
#60000
0"
#65000
b1110 6
b1 0
b0 /
b1 *
b1 1
b1 =
b100 9
b11 +
b11 ,
b11 <
b11 5
b1101 2
0>
1'
1"
#70000
0"
#75000
1>
0'
1"
#80000
0"
#85000
b11 0
b1110 /
b11100011 *
b11100011 1
b11100011 =
b1110 6
b11 9
b100 +
b100 ,
b100 <
b100 5
b1110 2
0>
1'
1"
#90000
0"
#95000
1>
0'
1"
#100000
0"
#105000
b1111 6
b1 0
b0 /
b100 9
b1 *
b1 1
b1 =
b11 +
b11 ,
b11 <
b11 5
0>
1'
1"
#110000
0"
#115000
1>
0'
1"
#120000
0"
#125000
b11 0
b1110 /
b11100011 *
b11100011 1
b11100011 =
08
b1111 6
b11 9
b100 +
b100 ,
b100 <
b100 5
b1111 2
0>
1'
1"
#130000
0"
#135000
1>
0'
1"
#140000
0"
#145000
18
b0 6
b1 0
b0 /
b100 9
b1 *
b1 1
b1 =
b11 +
b11 ,
b11 <
b11 5
0>
1'
1"
#150000
0"
#155000
1>
0'
1"
#160000
0"
#165000
b11 0
b1110 /
b11100011 *
b11100011 1
b11100011 =
b0 6
b101 9
08
b100 +
b100 ,
b100 <
b100 5
14
b0 2
0>
1'
1"
#170000
0"
#175000
1>
0'
1"
#180000
0"
#185000
b111 7
b1 0
b101 /
b1010001 *
b1010001 1
b1010001 =
b110 9
b101 +
b101 ,
b101 <
b101 5
04
0>
1'
1"
#190000
0"
#195000
1>
0'
1"
#200000
0"
#205000
b1110 /
b11100001 *
b11100001 1
b11100001 =
b111 7
b1 9
b110 +
b110 ,
b110 <
b110 5
b111 3
0>
1'
1"
#210000
0"
#215000
1>
0'
1"
#220000
0"
#225000
b111 :
b0 0
b1001 /
b10 9
b10010000 *
b10010000 1
b10010000 =
b1 +
b1 ,
b1 <
b1 5
0>
1'
1"
#230000
0"
#235000
1>
0'
1"
#240000
0"
#245000
b1101 6
b1101 0
b11 /
b11 9
b111101 *
b111101 1
b111101 =
b111 !
b111 &
b111 )
b111 -
b111 ;
b10 +
b10 ,
b10 <
b10 5
0>
1'
1"
#250000
0"
#255000
1>
0'
1"
#260000
0"
#265000
b1110 6
b1 0
b0 /
b1 *
b1 1
b1 =
b100 9
b11 +
b11 ,
b11 <
b11 5
b1101 2
0>
1'
1"
#270000
0"
#275000
1>
0'
1"
#280000
0"
#285000
b11 0
b1110 /
b11100011 *
b11100011 1
b11100011 =
b1110 6
b11 9
b100 +
b100 ,
b100 <
b100 5
b1110 2
0>
1'
1"
#290000
0"
#295000
1>
0'
1"
#300000
0"
#305000
b1111 6
b1 0
b0 /
b100 9
b1 *
b1 1
b1 =
b11 +
b11 ,
b11 <
b11 5
0>
1'
1"
#310000
0"
#315000
1>
0'
1"
#320000
0"
#325000
b11 0
b1110 /
b11100011 *
b11100011 1
b11100011 =
08
b1111 6
b11 9
b100 +
b100 ,
b100 <
b100 5
b1111 2
0>
1'
1"
#330000
0"
#335000
1>
0'
1"
#340000
0"
#345000
18
b0 6
b1 0
b0 /
b100 9
b1 *
b1 1
b1 =
b11 +
b11 ,
b11 <
b11 5
0>
1'
1"
#350000
0"
#355000
1>
0'
1"
#360000
0"
#365000
b11 0
b1110 /
b11100011 *
b11100011 1
b11100011 =
b0 6
b101 9
08
b100 +
b100 ,
b100 <
b100 5
14
b0 2
0>
1'
1"
#370000
0"
#375000
1>
0'
1"
#380000
0"
#385000
b1000 7
b1 0
b101 /
b1010001 *
b1010001 1
b1010001 =
b110 9
b101 +
b101 ,
b101 <
b101 5
04
0>
1'
1"
#390000
0"
#395000
1>
0'
1"
#400000
0"
#405000
b1110 /
b11100001 *
b11100001 1
b11100001 =
b1000 7
b1 9
b110 +
b110 ,
b110 <
b110 5
b1000 3
0>
1'
1"
#410000
0"
#415000
1>
0'
1"
#420000
0"
#425000
b1000 :
b0 0
b1001 /
b10 9
b10010000 *
b10010000 1
b10010000 =
b1 +
b1 ,
b1 <
b1 5
0>
1'
1"
#430000
0"
#435000
1>
0'
1"
#440000
0"
#445000
b1101 6
b1101 0
b11 /
b11 9
b111101 *
b111101 1
b111101 =
b1000 !
b1000 &
b1000 )
b1000 -
b1000 ;
b10 +
b10 ,
b10 <
b10 5
0>
1'
1"
#450000
0"
#455000
1>
0'
1"
#460000
0"
#465000
b1110 6
b1 0
b0 /
b1 *
b1 1
b1 =
b100 9
b11 +
b11 ,
b11 <
b11 5
b1101 2
0>
1'
1"
#470000
0"
#475000
1>
0'
1"
#480000
0"
#485000
b11 0
b1110 /
b11100011 *
b11100011 1
b11100011 =
b1110 6
b11 9
b100 +
b100 ,
b100 <
b100 5
b1110 2
0>
1'
1"
#490000
0"
#495000
1>
0'
1"
#500000
0"
#505000
b1111 6
b1 0
b0 /
b100 9
b1 *
b1 1
b1 =
b11 +
b11 ,
b11 <
b11 5
0>
1'
1"
#510000
0"
#515000
1>
0'
1"
#520000
0"
#525000
b11 0
b1110 /
b11100011 *
b11100011 1
b11100011 =
08
b1111 6
b11 9
b100 +
b100 ,
b100 <
b100 5
b1111 2
0>
1'
1"
#530000
0"
#535000
1>
0'
1"
#540000
0"
#545000
18
b0 6
b1 0
b0 /
b100 9
b1 *
b1 1
b1 =
b11 +
b11 ,
b11 <
b11 5
0>
1'
1"
#550000
0"
#555000
1>
0'
1"
#560000
0"
#565000
b11 0
b1110 /
b11100011 *
b11100011 1
b11100011 =
b0 6
b101 9
08
b100 +
b100 ,
b100 <
b100 5
14
b0 2
0>
1'
1"
#570000
0"
#575000
1>
0'
1"
#580000
0"
#585000
b1001 7
b1 0
b101 /
b1010001 *
b1010001 1
b1010001 =
b110 9
b101 +
b101 ,
b101 <
b101 5
04
0>
1'
1"
#590000
0"
#595000
1>
0'
1"
#600000
0"
#605000
b1110 /
b11100001 *
b11100001 1
b11100001 =
b1001 7
b1 9
b110 +
b110 ,
b110 <
b110 5
b1001 3
0>
1'
1"
#610000
0"
#615000
1>
0'
1"
#620000
0"
#625000
b1001 :
b0 0
b1001 /
b10 9
b10010000 *
b10010000 1
b10010000 =
b1 +
b1 ,
b1 <
b1 5
0>
1'
1"
#630000
0"
#635000
1>
0'
1"
#640000
0"
#645000
b1101 6
b1101 0
b11 /
b11 9
b111101 *
b111101 1
b111101 =
b1001 !
b1001 &
b1001 )
b1001 -
b1001 ;
b10 +
b10 ,
b10 <
b10 5
0>
1'
1"
#650000
0"
#655000
1>
0'
1"
#660000
0"
#665000
b1110 6
b1 0
b0 /
b1 *
b1 1
b1 =
b100 9
b11 +
b11 ,
b11 <
b11 5
b1101 2
0>
1'
1"
#670000
0"
#675000
1>
0'
1"
#680000
0"
#685000
b11 0
b1110 /
b11100011 *
b11100011 1
b11100011 =
b1110 6
b11 9
b100 +
b100 ,
b100 <
b100 5
b1110 2
0>
1'
1"
#690000
0"
#695000
1>
0'
1"
#700000
0"
#705000
b1111 6
b1 0
b0 /
b100 9
b1 *
b1 1
b1 =
b11 +
b11 ,
b11 <
b11 5
0>
1'
1"
#710000
0"
#715000
1>
0'
1"
#720000
0"
#725000
b11 0
b1110 /
b11100011 *
b11100011 1
b11100011 =
08
b1111 6
b11 9
b100 +
b100 ,
b100 <
b100 5
b1111 2
0>
1'
1"
#730000
0"
#735000
1>
0'
1"
#740000
0"
#745000
18
b0 6
b1 0
b0 /
b100 9
b1 *
b1 1
b1 =
b11 +
b11 ,
b11 <
b11 5
0>
1'
1"
#750000
0"
#755000
1>
0'
1"
#760000
0"
#765000
b11 0
b1110 /
b11100011 *
b11100011 1
b11100011 =
b0 6
b101 9
08
b100 +
b100 ,
b100 <
b100 5
14
b0 2
0>
1'
1"
#770000
0"
#775000
1>
0'
1"
#780000
0"
#785000
b1010 7
b1 0
b101 /
b1010001 *
b1010001 1
b1010001 =
b110 9
b101 +
b101 ,
b101 <
b101 5
04
0>
1'
1"
#790000
0"
#795000
1>
0'
1"
#800000
0"
#805000
b1110 /
b11100001 *
b11100001 1
b11100001 =
b1010 7
b1 9
b110 +
b110 ,
b110 <
b110 5
b1010 3
0>
1'
1"
#810000
0"
#815000
1>
0'
1"
#820000
0"
#825000
b1010 :
b0 0
b1001 /
b10 9
b10010000 *
b10010000 1
b10010000 =
b1 +
b1 ,
b1 <
b1 5
0>
1'
1"
#830000
0"
#835000
1>
0'
1"
#840000
0"
#845000
b1101 6
b1101 0
b11 /
b11 9
b111101 *
b111101 1
b111101 =
b1010 !
b1010 &
b1010 )
b1010 -
b1010 ;
b10 +
b10 ,
b10 <
b10 5
0>
1'
1"
#850000
0"
#855000
1>
0'
1"
#860000
0"
#865000
b1110 6
b1 0
b0 /
b1 *
b1 1
b1 =
b100 9
b11 +
b11 ,
b11 <
b11 5
b1101 2
0>
1'
1"
#870000
0"
#875000
1>
0'
1"
#880000
0"
#885000
b11 0
b1110 /
b11100011 *
b11100011 1
b11100011 =
b1110 6
b11 9
b100 +
b100 ,
b100 <
b100 5
b1110 2
0>
1'
1"
#890000
0"
#895000
1>
0'
1"
#900000
0"
#905000
b1111 6
b1 0
b0 /
b100 9
b1 *
b1 1
b1 =
b11 +
b11 ,
b11 <
b11 5
0>
1'
1"
#910000
0"
#915000
1>
0'
1"
#920000
0"
#925000
b11 0
b1110 /
b11100011 *
b11100011 1
b11100011 =
08
b1111 6
b11 9
b100 +
b100 ,
b100 <
b100 5
b1111 2
0>
1'
1"
#930000
0"
#935000
1>
0'
1"
#940000
0"
#945000
18
b0 6
b1 0
b0 /
b100 9
b1 *
b1 1
b1 =
b11 +
b11 ,
b11 <
b11 5
0>
1'
1"
#950000
0"
#955000
1>
0'
1"
#960000
0"
#965000
b11 0
b1110 /
b11100011 *
b11100011 1
b11100011 =
b0 6
b101 9
08
b100 +
b100 ,
b100 <
b100 5
14
b0 2
0>
1'
1"
#970000
0"
#975000
1>
0'
1"
#980000
0"
#985000
b1011 7
b1 0
b101 /
b1010001 *
b1010001 1
b1010001 =
b110 9
b101 +
b101 ,
b101 <
b101 5
04
0>
1'
1"
#990000
0"
#995000
1>
0'
1"
#1000000
0"
#1005000
b1110 /
b11100001 *
b11100001 1
b11100001 =
b1011 7
b1 9
b110 +
b110 ,
b110 <
b110 5
b1011 3
0>
1'
1"
#1010000
0"
#1015000
1>
0'
1"
#1020000
0"
#1025000
b1011 :
b0 0
b1001 /
b10 9
b10010000 *
b10010000 1
b10010000 =
b1 +
b1 ,
b1 <
b1 5
0>
1'
1"
#1030000
0"
#1035000
1>
0'
1"
#1040000
0"
#1045000
b1101 6
b1101 0
b11 /
b11 9
b111101 *
b111101 1
b111101 =
b1011 !
b1011 &
b1011 )
b1011 -
b1011 ;
b10 +
b10 ,
b10 <
b10 5
0>
1'
1"
#1050000
0"
#1055000
1>
0'
1"
#1060000
0"
#1065000
b1110 6
b1 0
b0 /
b1 *
b1 1
b1 =
b100 9
b11 +
b11 ,
b11 <
b11 5
b1101 2
0>
1'
1"
#1070000
0"
#1075000
1>
0'
1"
#1080000
0"
#1085000
b11 0
b1110 /
b11100011 *
b11100011 1
b11100011 =
b1110 6
b11 9
b100 +
b100 ,
b100 <
b100 5
b1110 2
0>
1'
1"
#1090000
0"
#1095000
1>
0'
1"
#1100000
0"
#1105000
b1111 6
b1 0
b0 /
b100 9
b1 *
b1 1
b1 =
b11 +
b11 ,
b11 <
b11 5
0>
1'
1"
#1110000
0"
#1115000
1>
0'
1"
#1120000
0"
#1125000
b11 0
b1110 /
b11100011 *
b11100011 1
b11100011 =
08
b1111 6
b11 9
b100 +
b100 ,
b100 <
b100 5
b1111 2
0>
1'
1"
#1130000
0"
#1135000
1>
0'
1"
#1140000
0"
#1145000
18
b0 6
b1 0
b0 /
b100 9
b1 *
b1 1
b1 =
b11 +
b11 ,
b11 <
b11 5
0>
1'
1"
#1150000
0"
#1155000
1>
0'
1"
#1160000
0"
#1165000
b11 0
b1110 /
b11100011 *
b11100011 1
b11100011 =
b0 6
b101 9
08
b100 +
b100 ,
b100 <
b100 5
14
b0 2
0>
1'
1"
#1170000
0"
#1175000
1>
0'
1"
#1180000
0"
#1185000
b1100 7
b1 0
b101 /
b1010001 *
b1010001 1
b1010001 =
b110 9
b101 +
b101 ,
b101 <
b101 5
04
0>
1'
1"
#1190000
0"
#1195000
1>
0'
1"
#1200000
0"
#1205000
b1110 /
b11100001 *
b11100001 1
b11100001 =
b1100 7
b1 9
b110 +
b110 ,
b110 <
b110 5
b1100 3
0>
1'
1"
#1210000
0"
#1215000
1>
0'
1"
#1220000
0"
#1225000
b1100 :
b0 0
b1001 /
b10 9
b10010000 *
b10010000 1
b10010000 =
b1 +
b1 ,
b1 <
b1 5
0>
1'
1"
#1230000
0"
#1235000
1>
0'
1"
#1240000
0"
#1245000
b1101 6
b1101 0
b11 /
b11 9
b111101 *
b111101 1
b111101 =
b1100 !
b1100 &
b1100 )
b1100 -
b1100 ;
b10 +
b10 ,
b10 <
b10 5
0>
1'
1"
#1250000
0"
#1255000
1>
0'
1"
#1260000
0"
#1265000
b1110 6
b1 0
b0 /
b1 *
b1 1
b1 =
b100 9
b11 +
b11 ,
b11 <
b11 5
b1101 2
0>
1'
1"
#1270000
0"
#1275000
1>
0'
1"
#1280000
0"
#1285000
b11 0
b1110 /
b11100011 *
b11100011 1
b11100011 =
b1110 6
b11 9
b100 +
b100 ,
b100 <
b100 5
b1110 2
0>
1'
1"
#1290000
0"
#1295000
1>
0'
1"
#1300000
0"
#1305000
b1111 6
b1 0
b0 /
b100 9
b1 *
b1 1
b1 =
b11 +
b11 ,
b11 <
b11 5
0>
1'
1"
#1310000
0"
#1315000
1>
0'
1"
#1320000
0"
#1325000
b11 0
b1110 /
b11100011 *
b11100011 1
b11100011 =
08
b1111 6
b11 9
b100 +
b100 ,
b100 <
b100 5
b1111 2
0>
1'
1"
#1330000
0"
#1335000
1>
0'
1"
#1340000
0"
#1345000
18
b0 6
b1 0
b0 /
b100 9
b1 *
b1 1
b1 =
b11 +
b11 ,
b11 <
b11 5
0>
1'
1"
#1350000
0"
#1355000
1>
0'
1"
#1360000
0"
#1365000
b11 0
b1110 /
b11100011 *
b11100011 1
b11100011 =
b0 6
b101 9
08
b100 +
b100 ,
b100 <
b100 5
14
b0 2
0>
1'
1"
#1370000
0"
#1375000
1>
0'
1"
#1380000
0"
#1385000
b1101 7
b1 0
b101 /
b1010001 *
b1010001 1
b1010001 =
b110 9
b101 +
b101 ,
b101 <
b101 5
04
0>
1'
1"
#1390000
0"
#1395000
1>
0'
1"
#1400000
0"
#1405000
b1110 /
b11100001 *
b11100001 1
b11100001 =
b1101 7
b1 9
b110 +
b110 ,
b110 <
b110 5
b1101 3
0>
1'
1"
#1410000
0"
#1415000
1>
0'
1"
#1420000
0"
#1425000
b1101 :
b0 0
b1001 /
b10 9
b10010000 *
b10010000 1
b10010000 =
b1 +
b1 ,
b1 <
b1 5
0>
1'
1"
#1430000
0"
#1435000
1>
0'
1"
#1440000
0"
#1445000
b1101 6
b1101 0
b11 /
b11 9
b111101 *
b111101 1
b111101 =
b1101 !
b1101 &
b1101 )
b1101 -
b1101 ;
b10 +
b10 ,
b10 <
b10 5
0>
1'
1"
#1450000
0"
#1455000
1>
0'
1"
#1460000
0"
#1465000
b1110 6
b1 0
b0 /
b1 *
b1 1
b1 =
b100 9
b11 +
b11 ,
b11 <
b11 5
b1101 2
0>
1'
1"
#1470000
0"
#1475000
1>
0'
1"
#1480000
0"
#1485000
b11 0
b1110 /
b11100011 *
b11100011 1
b11100011 =
b1110 6
b11 9
b100 +
b100 ,
b100 <
b100 5
b1110 2
0>
1'
1"
#1490000
0"
#1495000
1>
0'
1"
#1500000
0"
#1505000
b1111 6
b1 0
b0 /
b100 9
b1 *
b1 1
b1 =
b11 +
b11 ,
b11 <
b11 5
0>
1'
1"
#1510000
0"
#1515000
1>
0'
1"
#1520000
0"
#1525000
b11 0
b1110 /
b11100011 *
b11100011 1
b11100011 =
08
b1111 6
b11 9
b100 +
b100 ,
b100 <
b100 5
b1111 2
0>
1'
1"
#1530000
0"
#1535000
1>
0'
1"
#1540000
0"
#1545000
18
b0 6
b1 0
b0 /
b100 9
b1 *
b1 1
b1 =
b11 +
b11 ,
b11 <
b11 5
0>
1'
1"
#1550000
0"
#1555000
1>
0'
1"
#1560000
0"
#1565000
b11 0
b1110 /
b11100011 *
b11100011 1
b11100011 =
b0 6
b101 9
08
b100 +
b100 ,
b100 <
b100 5
14
b0 2
0>
1'
1"
#1570000
0"
#1575000
1>
0'
1"
#1580000
0"
#1585000
b1110 7
b1 0
b101 /
b1010001 *
b1010001 1
b1010001 =
b110 9
b101 +
b101 ,
b101 <
b101 5
04
0>
1'
1"
#1590000
0"
#1595000
1>
0'
1"
#1600000
0"
#1605000
b1110 /
b11100001 *
b11100001 1
b11100001 =
b1110 7
b1 9
b110 +
b110 ,
b110 <
b110 5
b1110 3
0>
1'
1"
#1610000
0"
#1615000
1>
0'
1"
#1620000
0"
#1625000
b1110 :
b0 0
b1001 /
b10 9
b10010000 *
b10010000 1
b10010000 =
b1 +
b1 ,
b1 <
b1 5
0>
1'
1"
#1630000
0"
#1635000
1>
0'
1"
#1640000
0"
#1645000
b1101 6
b1101 0
b11 /
b11 9
b111101 *
b111101 1
b111101 =
b1110 !
b1110 &
b1110 )
b1110 -
b1110 ;
b10 +
b10 ,
b10 <
b10 5
0>
1'
1"
#1650000
0"
#1655000
1>
0'
1"
#1660000
0"
#1665000
b1110 6
b1 0
b0 /
b1 *
b1 1
b1 =
b100 9
b11 +
b11 ,
b11 <
b11 5
b1101 2
0>
1'
1"
#1670000
0"
#1675000
1>
0'
1"
#1680000
0"
#1685000
b11 0
b1110 /
b11100011 *
b11100011 1
b11100011 =
b1110 6
b11 9
b100 +
b100 ,
b100 <
b100 5
b1110 2
0>
1'
1"
#1690000
0"
#1695000
1>
0'
1"
#1700000
0"
#1705000
b1111 6
b1 0
b0 /
b100 9
b1 *
b1 1
b1 =
b11 +
b11 ,
b11 <
b11 5
0>
1'
1"
#1710000
0"
#1715000
1>
0'
1"
#1720000
0"
#1725000
b11 0
b1110 /
b11100011 *
b11100011 1
b11100011 =
08
b1111 6
b11 9
b100 +
b100 ,
b100 <
b100 5
b1111 2
0>
1'
1"
#1730000
0"
#1735000
1>
0'
1"
#1740000
0"
#1745000
18
b0 6
b1 0
b0 /
b100 9
b1 *
b1 1
b1 =
b11 +
b11 ,
b11 <
b11 5
0>
1'
1"
#1750000
0"
#1755000
1>
0'
1"
#1760000
0"
#1765000
b11 0
b1110 /
b11100011 *
b11100011 1
b11100011 =
b0 6
b101 9
08
b100 +
b100 ,
b100 <
b100 5
14
b0 2
0>
1'
1"
#1770000
0"
#1775000
1>
0'
1"
#1780000
0"
#1785000
b1111 7
b1 0
b101 /
b1010001 *
b1010001 1
b1010001 =
b110 9
b101 +
b101 ,
b101 <
b101 5
04
0>
1'
1"
#1790000
0"
#1795000
1>
0'
1"
#1800000
0"
#1805000
b1110 /
b11100001 *
b11100001 1
b11100001 =
08
b1111 7
b1 9
b110 +
b110 ,
b110 <
b110 5
b1111 3
0>
1'
1"
#1810000
0"
#1815000
1>
0'
1"
#1820000
0"
#1825000
b1111 :
b0 0
b1001 /
b10 9
b10010000 *
b10010000 1
b10010000 =
b1 +
b1 ,
b1 <
b1 5
0>
1'
1"
#1830000
0"
#1835000
1>
0'
1"
#1840000
0"
#1845000
b1101 6
b1101 0
b11 /
b11 9
b111101 *
b111101 1
b111101 =
b1111 !
b1111 &
b1111 )
b1111 -
b1111 ;
b10 +
b10 ,
b10 <
b10 5
0>
1'
1"
#1850000
0"
#1855000
1>
0'
1"
#1860000
0"
#1865000
b1110 6
b1 0
b0 /
b1 *
b1 1
b1 =
b100 9
b11 +
b11 ,
b11 <
b11 5
b1101 2
0>
1'
1"
#1870000
0"
#1875000
1>
0'
1"
#1880000
0"
#1885000
b11 0
b1110 /
b11100011 *
b11100011 1
b11100011 =
b1110 6
b11 9
b100 +
b100 ,
b100 <
b100 5
b1110 2
0>
1'
1"
#1890000
0"
#1895000
1>
0'
1"
#1900000
0"
#1905000
b1111 6
b1 0
b0 /
b100 9
b1 *
b1 1
b1 =
b11 +
b11 ,
b11 <
b11 5
0>
1'
1"
#1910000
0"
#1915000
1>
0'
1"
#1920000
0"
#1925000
b11 0
b1110 /
b11100011 *
b11100011 1
b11100011 =
08
b1111 6
b11 9
b100 +
b100 ,
b100 <
b100 5
b1111 2
0>
1'
1"
#1930000
0"
#1935000
1>
0'
1"
#1940000
0"
#1945000
18
b0 6
b1 0
b0 /
b100 9
b1 *
b1 1
b1 =
b11 +
b11 ,
b11 <
b11 5
0>
1'
1"
#1950000
0"
#1955000
1>
0'
1"
#1960000
0"
#1965000
b11 0
b1110 /
b11100011 *
b11100011 1
b11100011 =
b0 6
b101 9
08
b100 +
b100 ,
b100 <
b100 5
14
b0 2
0>
1'
1"
#1970000
0"
#1975000
1>
0'
1"
#1980000
0"
#1985000
18
b0 7
b1 0
b101 /
b1010001 *
b1010001 1
b1010001 =
b110 9
b101 +
b101 ,
b101 <
b101 5
04
0>
1'
1"
